traffic/transcript
# vsim -c Testbench 
# //  QuestaSim-64 6.5f Jun 16 2010 Linux 4.15.0-88-generic
# //
# //  Copyright 1991-2010 Mentor Graphics Corporation
# //              All Rights Reserved.
# //
# //  THIS WORK CONTAINS TRADE SECRET AND 
# //  PROPRIETARY INFORMATION WHICH IS THE PROPERTY
# //  OF MENTOR GRAPHICS CORPORATION OR ITS LICENSORS
# //  AND IS SUBJECT TO LICENSE TERMS.
# //
# Loading work.Testbench
# Loading work.traffic
# ** Warning: (vsim-3009) [TSCALE] - Module 'traffic' does not have a `timescale directive in effect, but previous modules do.
#         Region: :Testbench:UUT
#                    0 Sa=0 Sb=0 PS=0000 GYRa=100 GYRb=001
#                   10 Sa=0 Sb=0 PS=0001 GYRa=100 GYRb=001
#                   20 Sa=0 Sb=0 PS=0010 GYRa=100 GYRb=001
#                   30 Sa=0 Sb=0 PS=0011 GYRa=100 GYRb=001
#                   40 Sa=0 Sb=0 PS=0100 GYRa=100 GYRb=001
#                   50 Sa=0 Sb=0 PS=0101 GYRa=100 GYRb=001
#                   80 Sa=0 Sb=1 PS=0101 GYRa=100 GYRb=001
#                   90 Sa=0 Sb=1 PS=0110 GYRa=010 GYRb=100
#                  100 Sa=0 Sb=1 PS=0111 GYRa=001 GYRb=100
#                  110 Sa=0 Sb=1 PS=1000 GYRa=001 GYRb=100
#                  120 Sa=0 Sb=1 PS=1001 GYRa=001 GYRb=100
#                  130 Sa=0 Sb=1 PS=1010 GYRa=001 GYRb=100
#                  140 Sa=0 Sb=1 PS=1011 GYRa=001 GYRb=100
#                  150 Sa=0 Sb=1 PS=1100 GYRa=001 GYRb=010
#                  160 Sa=0 Sb=0 PS=0000 GYRa=100 GYRb=001
#                  170 Sa=0 Sb=1 PS=0001 GYRa=100 GYRb=001
#                  180 Sa=0 Sb=1 PS=0010 GYRa=100 GYRb=001
#                  190 Sa=0 Sb=1 PS=0011 GYRa=100 GYRb=001
#                  200 Sa=0 Sb=1 PS=0100 GYRa=100 GYRb=001
#                  210 Sa=0 Sb=1 PS=0101 GYRa=100 GYRb=001
#                  220 Sa=0 Sb=1 PS=0110 GYRa=010 GYRb=100
